…
Question 2

The second question I wanted to answer was what type of emergency is the most common. I determined this by sorting the data by the title column and then counting the number of occurrences with the same name and then arranging them in descending order. By doing this I was able to ascertain (unsuprisingly) that vehicle accidents are the most common emergency followed by disabled vehicles and fire alarms.

## # A tibble: 148 x 2
## # Groups:   title [148]
##    title                            n
##    <fct>                        <int>
##  1 Traffic: VEHICLE ACCIDENT - 148372
##  2 Traffic: DISABLED VEHICLE -  47909
##  3 Fire: FIRE ALARM             38336
##  4 EMS: FALL VICTIM             34676
##  5 EMS: RESPIRATORY EMERGENCY   34248
##  6 EMS: CARDIAC EMERGENCY       32332
##  7 EMS: VEHICLE ACCIDENT        25513
##  8 Traffic: ROAD OBSTRUCTION -  23235
##  9 EMS: SUBJECT IN PAIN         19646
## 10 EMS: HEAD INJURY             18301
## # … with 138 more rows
…
