…
Question

Determine which month is the busiest for each type of hotel.
- the city hotel has approximately the same number of guests year round, their busiest months are April and July.
- the resort hotel is busiest June-September with its slowest months being January and November

## # A tibble: 24 x 3
## # Groups:   hotel [2]
##    hotel      month     total_guests_per_month
##    <fct>      <fct>                      <int>
##  1 City Hotel January                     6721
##  2 City Hotel February                    9376
##  3 City Hotel March                      12333
##  4 City Hotel April                      15101
##  5 City Hotel May                        15464
##  6 City Hotel June                       15116
##  7 City Hotel July                       17203
##  8 City Hotel August                        NA
##  9 City Hotel September                  13961
## 10 City Hotel October                    14133
## # … with 14 more rows

Question

determine the lead time per month of arrival - when is the hotel busier so you need to book earlier?
- if you want a room at the city hotel between May and October you will need to book 4-5 months in advance compared to booking a room in January or February you will only need to book about 2 months in advance
- if you want a room at the resort hotel between May and October you will also need to book 4-6 months in advance. If you want a room November - March you will only need to book 2 months in advance.

## # A tibble: 24 x 3
## # Groups:   hotel [2]
##    hotel      month     mean_lead_time
##    <fct>      <fct>              <dbl>
##  1 City Hotel January             56.6
##  2 City Hotel February            52.8
##  3 City Hotel March               73.2
##  4 City Hotel April               99.1
##  5 City Hotel May                116. 
##  6 City Hotel June               124. 
##  7 City Hotel July               154. 
##  8 City Hotel August             131. 
##  9 City Hotel September          128. 
## 10 City Hotel October            126. 
## # … with 14 more rows
…
Question

Determine which type of emergency is the most common.
- Will most likely do this by generating different data visualizations and calculating summary statistics like means, medians, and standard deviations.

## # A tibble: 148 x 2
## # Groups:   title [148]
##    title                            n
##    <fct>                        <int>
##  1 Traffic: VEHICLE ACCIDENT - 148372
##  2 Traffic: DISABLED VEHICLE -  47909
##  3 Fire: FIRE ALARM             38336
##  4 EMS: FALL VICTIM             34676
##  5 EMS: RESPIRATORY EMERGENCY   34248
##  6 EMS: CARDIAC EMERGENCY       32332
##  7 EMS: VEHICLE ACCIDENT        25513
##  8 Traffic: ROAD OBSTRUCTION -  23235
##  9 EMS: SUBJECT IN PAIN         19646
## 10 EMS: HEAD INJURY             18301
## # … with 138 more rows
…
