…
data_hotel$month <- factor(data_hotel$arrival_date_month, levels = month.name)
data_hotel$total_guests_per_day <- data_hotel$adults + data_hotel$children + data_hotel$babies

data_hotel %>% group_by(hotel, month) %>% summarize(total_guests_per_month = sum(total_guests_per_day))

## # A tibble: 24 x 3
## # Groups:   hotel [2]
##    hotel      month     total_guests_per_month
##    <fct>      <fct>                      <int>
##  1 City Hotel January                     6721
##  2 City Hotel February                    9376
##  3 City Hotel March                      12333
##  4 City Hotel April                      15101
##  5 City Hotel May                        15464
##  6 City Hotel June                       15116
##  7 City Hotel July                       17203
##  8 City Hotel August                     19392
##  9 City Hotel September                  13961
## 10 City Hotel October                    14133
## # … with 14 more rows
…
