…
Question 2

The second question I wanted to answer was what type of emergency is the most common. I determined this by sorting the data by the title column and then counting the number of occurrences with the same name and then arranging them in descending order. By doing this I was able to ascertain (unsurprisingly) that vehicle accidents are the most common emergency followed by disabled vehicles and fire alarms.

data_911 %>% group_by(title) %>% count() %>% arrange(desc(n))

## # A tibble: 148 x 2
## # Groups:   title [148]
##    title                            n
##    <fct>                        <int>
##  1 Traffic: VEHICLE ACCIDENT - 148177
##  2 Traffic: DISABLED VEHICLE -  47814
##  3 Fire: FIRE ALARM             38334
##  4 EMS: FALL VICTIM             34675
##  5 EMS: RESPIRATORY EMERGENCY   34244
##  6 EMS: CARDIAC EMERGENCY       32326
##  7 EMS: VEHICLE ACCIDENT        25446
##  8 Traffic: ROAD OBSTRUCTION -  23153
##  9 EMS: SUBJECT IN PAIN         19643
## 10 EMS: HEAD INJURY             18299
## # … with 138 more rows
…
